PWD /home/damien/working/MSc_DA/report_template/titlepage
INPUT /opt/texlive/2021/texmf.cnf
INPUT /opt/texlive/2021/texmf-dist/web2c/texmf.cnf
INPUT /opt/texlive/2021/texmf-var/web2c/pdftex/pdflatex.fmt
INPUT titlepage.tex
OUTPUT titlepage.log
INPUT /opt/texlive/2021/texmf-dist/tex/latex/base/article.cls
INPUT /opt/texlive/2021/texmf-dist/tex/latex/base/article.cls
INPUT /opt/texlive/2021/texmf-dist/tex/latex/base/article.cls
INPUT /opt/texlive/2021/texmf-dist/tex/latex/base/article.cls
INPUT /opt/texlive/2021/texmf-dist/tex/latex/base/article.cls
INPUT /opt/texlive/2021/texmf-dist/tex/latex/base/article.cls
INPUT /opt/texlive/2021/texmf-dist/tex/latex/base/article.cls
INPUT /opt/texlive/2021/texmf-dist/tex/latex/base/article.cls
INPUT /opt/texlive/2021/texmf-dist/tex/latex/base/article.cls
INPUT /opt/texlive/2021/texmf-dist/tex/latex/base/article.cls
INPUT /opt/texlive/2021/texmf-dist/tex/latex/base/article.cls
INPUT /opt/texlive/2021/texmf-dist/tex/latex/base/size10.clo
INPUT /opt/texlive/2021/texmf-dist/tex/latex/base/size10.clo
INPUT /opt/texlive/2021/texmf-dist/tex/latex/base/size10.clo
INPUT /opt/texlive/2021/texmf-dist/tex/latex/base/size10.clo
INPUT /opt/texlive/2021/texmf-dist/tex/latex/geometry/geometry.sty
INPUT /opt/texlive/2021/texmf-dist/tex/latex/geometry/geometry.sty
INPUT /opt/texlive/2021/texmf-dist/tex/latex/geometry/geometry.sty
INPUT /opt/texlive/2021/texmf-dist/tex/latex/geometry/geometry.sty
INPUT /opt/texlive/2021/texmf-dist/tex/latex/geometry/geometry.sty
INPUT /opt/texlive/2021/texmf-dist/tex/latex/geometry/geometry.sty
INPUT /opt/texlive/2021/texmf-dist/tex/latex/geometry/geometry.sty
INPUT /opt/texlive/2021/texmf-dist/tex/latex/geometry/geometry.sty
INPUT /opt/texlive/2021/texmf-dist/tex/latex/geometry/geometry.sty
INPUT /opt/texlive/2021/texmf-dist/tex/latex/geometry/geometry.sty
INPUT /opt/texlive/2021/texmf-dist/tex/latex/geometry/geometry.sty
INPUT /opt/texlive/2021/texmf-dist/tex/latex/graphics/keyval.sty
INPUT /opt/texlive/2021/texmf-dist/tex/latex/graphics/keyval.sty
INPUT /opt/texlive/2021/texmf-dist/tex/latex/graphics/keyval.sty
INPUT /opt/texlive/2021/texmf-dist/tex/latex/graphics/keyval.sty
INPUT /opt/texlive/2021/texmf-dist/tex/latex/graphics/keyval.sty
INPUT /opt/texlive/2021/texmf-dist/tex/latex/graphics/keyval.sty
INPUT /opt/texlive/2021/texmf-dist/tex/latex/graphics/keyval.sty
INPUT /opt/texlive/2021/texmf-dist/tex/latex/graphics/keyval.sty
INPUT /opt/texlive/2021/texmf-dist/tex/latex/graphics/keyval.sty
INPUT /opt/texlive/2021/texmf-dist/tex/latex/graphics/keyval.sty
INPUT /opt/texlive/2021/texmf-dist/tex/latex/graphics/keyval.sty
INPUT /opt/texlive/2021/texmf-dist/tex/generic/iftex/ifvtex.sty
INPUT /opt/texlive/2021/texmf-dist/tex/generic/iftex/ifvtex.sty
INPUT /opt/texlive/2021/texmf-dist/tex/generic/iftex/ifvtex.sty
INPUT /opt/texlive/2021/texmf-dist/tex/generic/iftex/ifvtex.sty
INPUT /opt/texlive/2021/texmf-dist/tex/generic/iftex/ifvtex.sty
INPUT /opt/texlive/2021/texmf-dist/tex/generic/iftex/ifvtex.sty
INPUT /opt/texlive/2021/texmf-dist/tex/generic/iftex/ifvtex.sty
INPUT /opt/texlive/2021/texmf-dist/tex/generic/iftex/ifvtex.sty
INPUT /opt/texlive/2021/texmf-dist/tex/generic/iftex/ifvtex.sty
INPUT /opt/texlive/2021/texmf-dist/tex/generic/iftex/ifvtex.sty
INPUT /opt/texlive/2021/texmf-dist/tex/generic/iftex/ifvtex.sty
INPUT /opt/texlive/2021/texmf-dist/tex/generic/iftex/iftex.sty
INPUT /opt/texlive/2021/texmf-dist/tex/generic/iftex/iftex.sty
INPUT /opt/texlive/2021/texmf-dist/tex/generic/iftex/iftex.sty
INPUT /opt/texlive/2021/texmf-dist/tex/generic/iftex/iftex.sty
INPUT /opt/texlive/2021/texmf-dist/tex/generic/iftex/iftex.sty
INPUT /opt/texlive/2021/texmf-dist/tex/generic/iftex/iftex.sty
INPUT /opt/texlive/2021/texmf-dist/tex/generic/iftex/iftex.sty
INPUT /opt/texlive/2021/texmf-dist/tex/generic/iftex/iftex.sty
INPUT /opt/texlive/2021/texmf-dist/tex/generic/iftex/iftex.sty
INPUT /opt/texlive/2021/texmf-dist/tex/generic/iftex/iftex.sty
INPUT /opt/texlive/2021/texmf-dist/tex/generic/iftex/iftex.sty
INPUT /opt/texlive/2021/texmf-dist/tex/latex/graphics/graphicx.sty
INPUT /opt/texlive/2021/texmf-dist/tex/latex/graphics/graphicx.sty
INPUT /opt/texlive/2021/texmf-dist/tex/latex/graphics/graphicx.sty
INPUT /opt/texlive/2021/texmf-dist/tex/latex/graphics/graphicx.sty
INPUT /opt/texlive/2021/texmf-dist/tex/latex/graphics/graphicx.sty
INPUT /opt/texlive/2021/texmf-dist/tex/latex/graphics/graphicx.sty
INPUT /opt/texlive/2021/texmf-dist/tex/latex/graphics/graphicx.sty
INPUT /opt/texlive/2021/texmf-dist/tex/latex/graphics/graphicx.sty
INPUT /opt/texlive/2021/texmf-dist/tex/latex/graphics/graphicx.sty
INPUT /opt/texlive/2021/texmf-dist/tex/latex/graphics/graphicx.sty
INPUT /opt/texlive/2021/texmf-dist/tex/latex/graphics/graphicx.sty
INPUT /opt/texlive/2021/texmf-dist/tex/latex/graphics/keyval.sty
INPUT /opt/texlive/2021/texmf-dist/tex/latex/graphics/graphics.sty
INPUT /opt/texlive/2021/texmf-dist/tex/latex/graphics/graphics.sty
INPUT /opt/texlive/2021/texmf-dist/tex/latex/graphics/graphics.sty
INPUT /opt/texlive/2021/texmf-dist/tex/latex/graphics/graphics.sty
INPUT /opt/texlive/2021/texmf-dist/tex/latex/graphics/graphics.sty
INPUT /opt/texlive/2021/texmf-dist/tex/latex/graphics/graphics.sty
INPUT /opt/texlive/2021/texmf-dist/tex/latex/graphics/graphics.sty
INPUT /opt/texlive/2021/texmf-dist/tex/latex/graphics/graphics.sty
INPUT /opt/texlive/2021/texmf-dist/tex/latex/graphics/graphics.sty
INPUT /opt/texlive/2021/texmf-dist/tex/latex/graphics/graphics.sty
INPUT /opt/texlive/2021/texmf-dist/tex/latex/graphics/graphics.sty
INPUT /opt/texlive/2021/texmf-dist/tex/latex/graphics/trig.sty
INPUT /opt/texlive/2021/texmf-dist/tex/latex/graphics/trig.sty
INPUT /opt/texlive/2021/texmf-dist/tex/latex/graphics/trig.sty
INPUT /opt/texlive/2021/texmf-dist/tex/latex/graphics/trig.sty
INPUT /opt/texlive/2021/texmf-dist/tex/latex/graphics/trig.sty
INPUT /opt/texlive/2021/texmf-dist/tex/latex/graphics/trig.sty
INPUT /opt/texlive/2021/texmf-dist/tex/latex/graphics/trig.sty
INPUT /opt/texlive/2021/texmf-dist/tex/latex/graphics/trig.sty
INPUT /opt/texlive/2021/texmf-dist/tex/latex/graphics/trig.sty
INPUT /opt/texlive/2021/texmf-dist/tex/latex/graphics/trig.sty
INPUT /opt/texlive/2021/texmf-dist/tex/latex/graphics/trig.sty
INPUT /opt/texlive/2021/texmf-dist/tex/latex/graphics-cfg/graphics.cfg
INPUT /opt/texlive/2021/texmf-dist/tex/latex/graphics-cfg/graphics.cfg
INPUT /opt/texlive/2021/texmf-dist/tex/latex/graphics-cfg/graphics.cfg
INPUT /opt/texlive/2021/texmf-dist/tex/latex/graphics-cfg/graphics.cfg
INPUT /opt/texlive/2021/texmf-dist/tex/latex/graphics-def/pdftex.def
INPUT /opt/texlive/2021/texmf-dist/tex/latex/graphics-def/pdftex.def
INPUT /opt/texlive/2021/texmf-dist/tex/latex/graphics-def/pdftex.def
INPUT /opt/texlive/2021/texmf-dist/tex/latex/graphics-def/pdftex.def
INPUT /opt/texlive/2021/texmf-dist/tex/latex/l3backend/l3backend-pdftex.def
INPUT /opt/texlive/2021/texmf-dist/tex/latex/l3backend/l3backend-pdftex.def
INPUT /opt/texlive/2021/texmf-dist/tex/latex/l3backend/l3backend-pdftex.def
INPUT /opt/texlive/2021/texmf-dist/tex/latex/l3backend/l3backend-pdftex.def
INPUT /opt/texlive/2021/texmf-dist/tex/latex/l3backend/l3backend-pdftex.def
INPUT /opt/texlive/2021/texmf-dist/tex/latex/l3backend/l3backend-pdftex.def
INPUT /opt/texlive/2021/texmf-dist/tex/latex/l3backend/l3backend-pdftex.def
INPUT /opt/texlive/2021/texmf-dist/tex/latex/l3backend/l3backend-pdftex.def
INPUT /opt/texlive/2021/texmf-dist/tex/latex/l3backend/l3backend-pdftex.def
INPUT /opt/texlive/2021/texmf-dist/tex/latex/l3backend/l3backend-pdftex.def
INPUT /opt/texlive/2021/texmf-dist/tex/latex/l3backend/l3backend-pdftex.def
INPUT ./titlepage.aux
INPUT titlepage.aux
INPUT titlepage.aux
OUTPUT titlepage.aux
INPUT /opt/texlive/2021/texmf-dist/tex/context/base/mkii/supp-pdf.mkii
INPUT /opt/texlive/2021/texmf-dist/tex/context/base/mkii/supp-pdf.mkii
INPUT /opt/texlive/2021/texmf-dist/tex/context/base/mkii/supp-pdf.mkii
INPUT /opt/texlive/2021/texmf-dist/tex/context/base/mkii/supp-pdf.mkii
INPUT /opt/texlive/2021/texmf-dist/tex/latex/epstopdf-pkg/epstopdf-base.sty
INPUT /opt/texlive/2021/texmf-dist/tex/latex/epstopdf-pkg/epstopdf-base.sty
INPUT /opt/texlive/2021/texmf-dist/tex/latex/epstopdf-pkg/epstopdf-base.sty
INPUT /opt/texlive/2021/texmf-dist/tex/latex/epstopdf-pkg/epstopdf-base.sty
INPUT /opt/texlive/2021/texmf-dist/tex/latex/epstopdf-pkg/epstopdf-base.sty
INPUT /opt/texlive/2021/texmf-dist/tex/latex/epstopdf-pkg/epstopdf-base.sty
INPUT /opt/texlive/2021/texmf-dist/tex/latex/epstopdf-pkg/epstopdf-base.sty
INPUT /opt/texlive/2021/texmf-dist/tex/latex/epstopdf-pkg/epstopdf-base.sty
INPUT /opt/texlive/2021/texmf-dist/tex/latex/epstopdf-pkg/epstopdf-base.sty
INPUT /opt/texlive/2021/texmf-dist/tex/latex/epstopdf-pkg/epstopdf-base.sty
INPUT /opt/texlive/2021/texmf-dist/tex/latex/epstopdf-pkg/epstopdf-base.sty
INPUT /opt/texlive/2021/texmf-dist/tex/latex/latexconfig/epstopdf-sys.cfg
INPUT /opt/texlive/2021/texmf-dist/tex/latex/latexconfig/epstopdf-sys.cfg
INPUT /opt/texlive/2021/texmf-dist/tex/latex/latexconfig/epstopdf-sys.cfg
INPUT /opt/texlive/2021/texmf-dist/tex/latex/latexconfig/epstopdf-sys.cfg
INPUT /opt/texlive/2021/texmf-dist/fonts/tfm/public/cm/cmr17.tfm
INPUT /opt/texlive/2021/texmf-dist/fonts/tfm/public/cm/cmbx12.tfm
INPUT /opt/texlive/2021/texmf-dist/fonts/tfm/public/cm/cmr12.tfm
INPUT /opt/texlive/2021/texmf-dist/fonts/tfm/public/cm/cmtt10.tfm
INPUT /opt/texlive/2021/texmf-dist/fonts/tfm/public/cm/cmcsc10.tfm
INPUT /opt/texlive/2021/texmf-dist/fonts/tfm/public/cm/cmcsc10.tfm
INPUT ./logo.jpg
INPUT ./logo.jpg
INPUT logo.jpg
INPUT ./logo.jpg
OUTPUT titlepage.pdf
INPUT ./logo.jpg
INPUT /opt/texlive/2021/texmf-var/fonts/map/pdftex/updmap/pdftex.map
INPUT titlepage.aux
INPUT /opt/texlive/2021/texmf-dist/fonts/type1/public/amsfonts/cm/cmbx12.pfb
INPUT /opt/texlive/2021/texmf-dist/fonts/type1/public/amsfonts/cm/cmcsc10.pfb
INPUT /opt/texlive/2021/texmf-dist/fonts/type1/public/amsfonts/cm/cmr12.pfb
INPUT /opt/texlive/2021/texmf-dist/fonts/type1/public/amsfonts/cm/cmtt10.pfb
